{
    "crashes":[
        {
            "model":"iPhone3,1",
            "has_log":true,
            "oem":"Apple",
            "created_at":"2011-05-02T12:08:10Z",
            "updated_at":"2011-05-02T13:01:36Z",
            "has_description":false,
            "bundle_short_version":"1.0",
            "id":9,
            "app_id":123,
            "app_version_id":456,
            "crash_reason_id":789,
            "bundle_version":"89",
            "user_string":"",
            "os_version":"4.3.2",
            "jail_break":false,
            "contact_string":""
        },
        {
            "model":"iPhone3,1",
            "has_log":true,
            "oem":"Apple",
            "created_at":"2011-05-02T12:08:10Z",
            "updated_at":"2011-05-02T13:01:36Z",
            "has_description":false,
            "bundle_short_version":"1.0",
            "id":9,
            "app_id":123,
            "app_version_id":456,
            "crash_reason_id":789,
            "bundle_version":"89",
            "user_string":"",
            "os_version":"4.3.2",
            "jail_break":false,
            "contact_string":""
        }
    ],
    "total_entries":4,
    "total_pages":2,
    "per_page":2,
    "status":"success",
    "current_page":2
}
